c:\users\pg15teddy\desktop\vgp242\core\x64\debug\core.pch
c:\users\pg15teddy\desktop\vgp242\core\x64\debug\core.pdb
c:\users\pg15teddy\desktop\vgp242\core\x64\debug\core.idb
c:\users\pg15teddy\desktop\vgp242\core\x64\debug\precompiled.obj
c:\users\pg15teddy\desktop\vgp242\core\x64\debug\window.obj
c:\users\pg15teddy\desktop\vgp242\core\x64\debug\application.obj
c:\users\pg15teddy\desktop\vgp242\x64\debug\core.lib
c:\users\pg15teddy\desktop\vgp242\x64\debug\core.pdb
c:\users\pg15teddy\desktop\vgp242\core\x64\debug\core.tlog\cl.command.1.tlog
c:\users\pg15teddy\desktop\vgp242\core\x64\debug\core.tlog\cl.read.1.tlog
c:\users\pg15teddy\desktop\vgp242\core\x64\debug\core.tlog\cl.write.1.tlog
c:\users\pg15teddy\desktop\vgp242\core\x64\debug\core.tlog\lib-link.read.1.tlog
c:\users\pg15teddy\desktop\vgp242\core\x64\debug\core.tlog\lib-link.write.1.tlog
c:\users\pg15teddy\desktop\vgp242\core\x64\debug\core.tlog\lib.command.1.tlog
